package ims.revamp;

rule "Client Fais Compliance PP"
    when 
		m :  CheckClientCompliance(); 
		eval(m.getComplianceCount() <= 0)
		eval(m.getIsExistingClient()) 
    then
    	m.setCode(1);
		m.setSeverity("Low");
		m.setElement("ClientNumber");
	    	m.setMessage("Investor is not FICA Compliant");
		m.setFail(true);
end