package ims.revamp;

rule "PP NewBusiness Indexing Default"
    when
		m : NewBusinessIndexingPP()
		eval(1 == 1) 
    then
    m.setAwdQueue("WAITSIGP");
    m.setAwdSourceType("APPFORM");
    m.setAwdWorkType("NEWBUS");
    m.setAwdStatus("WAITSIGPAG");
    m.setMessage( "Default Indexing (no rules)");
    m.setAwdBusinesArea( "IAM PP");
    m.setAwdInvs('N');

java.util.List<java.lang.String> additionalLob = new java.util.ArrayList<java.lang.String>();
    additionalLob.add("WRFG:WAITSIG");
    m.setAwdAdditionalLob(additionalLob);  
end